^C:\USERS\LORDE\ONEDRIVE\РОБОЧИЙ СТІЛ\АЛГОРИТМИ\LAB01\TASK2_2\X64\DEBUG\TASK2_2.OBJ
C:\USERS\LORDE\ONEDRIVE\Робочий стіл\Алгоритми\LAB01\X64\DEBUG\TASK2_2.EXE
C:\USERS\LORDE\ONEDRIVE\Робочий стіл\Алгоритми\LAB01\TASK2_2\X64\DEBUG\TASK2_2.ILK
C:\USERS\LORDE\ONEDRIVE\Робочий стіл\Алгоритми\LAB01\X64\DEBUG\TASK2_2.PDB
